<?xml version="1.0" encoding="UTF-8" standalone="no"?>
<!-- Created with Inkscape (http://www.inkscape.org/) -->

<svg
   xmlns:dc="http://purl.org/dc/elements/1.1/"
   xmlns:cc="http://creativecommons.org/ns#"
   xmlns:rdf="http://www.w3.org/1999/02/22-rdf-syntax-ns#"
   xmlns:svg="http://www.w3.org/2000/svg"
   xmlns="http://www.w3.org/2000/svg"
   xmlns:sodipodi="http://sodipodi.sourceforge.net/DTD/sodipodi-0.dtd"
   xmlns:inkscape="http://www.inkscape.org/namespaces/inkscape"
   width="744.09448819"
   height="1052.3622047"
   id="svg3216"
   version="1.1"
   inkscape:version="0.47 r22583"
   sodipodi:docname="architecture.svg">
  <defs
     id="defs3218">
    <marker
       inkscape:stockid="Arrow1Send"
       orient="auto"
       refY="0.0"
       refX="0.0"
       id="Arrow1Send"
       style="overflow:visible;">
      <path
         id="path5860"
         d="M 0.0,0.0 L 5.0,-5.0 L -12.5,0.0 L 5.0,5.0 L 0.0,0.0 z "
         style="fill-rule:evenodd;stroke:#000000;stroke-width:1.0pt;marker-start:none;"
         transform="scale(0.2) rotate(180) translate(6,0)" />
    </marker>
    <marker
       inkscape:stockid="Arrow2Mend"
       orient="auto"
       refY="0.0"
       refX="0.0"
       id="Arrow2Mend"
       style="overflow:visible;">
      <path
         id="path5872"
         style="font-size:12.0;fill-rule:evenodd;stroke-width:0.62500000;stroke-linejoin:round;"
         d="M 8.7185878,4.0337352 L -2.2072895,0.016013256 L 8.7185884,-4.0017078 C 6.9730900,-1.6296469 6.9831476,1.6157441 8.7185878,4.0337352 z "
         transform="scale(0.6) rotate(180) translate(0,0)" />
    </marker>
    <marker
       inkscape:stockid="Arrow2Lend"
       orient="auto"
       refY="0.0"
       refX="0.0"
       id="Arrow2Lend"
       style="overflow:visible;">
      <path
         id="path5866"
         style="font-size:12.0;fill-rule:evenodd;stroke-width:0.62500000;stroke-linejoin:round;"
         d="M 8.7185878,4.0337352 L -2.2072895,0.016013256 L 8.7185884,-4.0017078 C 6.9730900,-1.6296469 6.9831476,1.6157441 8.7185878,4.0337352 z "
         transform="scale(1.1) rotate(180) translate(1,0)" />
    </marker>
    <inkscape:perspective
       sodipodi:type="inkscape:persp3d"
       inkscape:vp_x="0 : 526.18109 : 1"
       inkscape:vp_y="0 : 1000 : 0"
       inkscape:vp_z="744.09448 : 526.18109 : 1"
       inkscape:persp3d-origin="372.04724 : 350.78739 : 1"
       id="perspective3224" />
    <inkscape:perspective
       id="perspective3206"
       inkscape:persp3d-origin="0.5 : 0.33333333 : 1"
       inkscape:vp_z="1 : 0.5 : 1"
       inkscape:vp_y="0 : 1000 : 0"
       inkscape:vp_x="0 : 0.5 : 1"
       sodipodi:type="inkscape:persp3d" />
    <inkscape:perspective
       id="perspective4053"
       inkscape:persp3d-origin="0.5 : 0.33333333 : 1"
       inkscape:vp_z="1 : 0.5 : 1"
       inkscape:vp_y="0 : 1000 : 0"
       inkscape:vp_x="0 : 0.5 : 1"
       sodipodi:type="inkscape:persp3d" />
    <inkscape:perspective
       id="perspective7473"
       inkscape:persp3d-origin="0.5 : 0.33333333 : 1"
       inkscape:vp_z="1 : 0.5 : 1"
       inkscape:vp_y="0 : 1000 : 0"
       inkscape:vp_x="0 : 0.5 : 1"
       sodipodi:type="inkscape:persp3d" />
    <inkscape:perspective
       id="perspective7516"
       inkscape:persp3d-origin="0.5 : 0.33333333 : 1"
       inkscape:vp_z="1 : 0.5 : 1"
       inkscape:vp_y="0 : 1000 : 0"
       inkscape:vp_x="0 : 0.5 : 1"
       sodipodi:type="inkscape:persp3d" />
    <inkscape:perspective
       id="perspective7559"
       inkscape:persp3d-origin="0.5 : 0.33333333 : 1"
       inkscape:vp_z="1 : 0.5 : 1"
       inkscape:vp_y="0 : 1000 : 0"
       inkscape:vp_x="0 : 0.5 : 1"
       sodipodi:type="inkscape:persp3d" />
    <inkscape:perspective
       id="perspective7593"
       inkscape:persp3d-origin="0.5 : 0.33333333 : 1"
       inkscape:vp_z="1 : 0.5 : 1"
       inkscape:vp_y="0 : 1000 : 0"
       inkscape:vp_x="0 : 0.5 : 1"
       sodipodi:type="inkscape:persp3d" />
    <inkscape:perspective
       id="perspective8203"
       inkscape:persp3d-origin="0.5 : 0.33333333 : 1"
       inkscape:vp_z="1 : 0.5 : 1"
       inkscape:vp_y="0 : 1000 : 0"
       inkscape:vp_x="0 : 0.5 : 1"
       sodipodi:type="inkscape:persp3d" />
  </defs>
  <sodipodi:namedview
     id="base"
     pagecolor="#ffffff"
     bordercolor="#666666"
     borderopacity="1.0"
     inkscape:pageopacity="0.0"
     inkscape:pageshadow="2"
     inkscape:zoom="0.98994949"
     inkscape:cx="280.2051"
     inkscape:cy="520"
     inkscape:document-units="px"
     inkscape:current-layer="g14260"
     showgrid="false"
     inkscape:window-width="1270"
     inkscape:window-height="953"
     inkscape:window-x="0"
     inkscape:window-y="0"
     inkscape:window-maximized="1" />
  <metadata
     id="metadata3221">
    <rdf:RDF>
      <cc:Work
         rdf:about="">
        <dc:format>image/svg+xml</dc:format>
        <dc:type
           rdf:resource="http://purl.org/dc/dcmitype/StillImage" />
        <dc:title />
      </cc:Work>
    </rdf:RDF>
  </metadata>
  <g
     inkscape:label="Layer 1"
     inkscape:groupmode="layer"
     id="layer1">
    <g
       id="g14260"
       transform="translate(-191.71285,73.466798)"
       style="opacity:0.8">
      <rect
         rx="8"
         ry="8"
         y="351.86084"
         x="213.98819"
         height="45.898663"
         width="164.03519"
         id="rect10544"
         style="fill:#c9c9c9;fill-opacity:0.98823529000000021;stroke:#4993ca;stroke-width:2.50000000000000000;stroke-linecap:square;stroke-linejoin:round;stroke-miterlimit:4;stroke-opacity:1;stroke-dasharray:none;stroke-dashoffset:0;opacity:0.8" />
      <text
         sodipodi:linespacing="125%"
         id="text12000"
         y="372.46622"
         x="244.62923"
         style="font-size:14px;font-style:normal;font-variant:normal;font-weight:normal;font-stretch:normal;text-align:start;line-height:125%;writing-mode:lr-tb;text-anchor:start;fill:#000000;fill-opacity:1;stroke:none;font-family:Trebuchet MS"
         xml:space="preserve"><tspan
           y="372.46622"
           x="244.62923"
           id="tspan12002"
           sodipodi:role="line">Input</tspan></text>
      <text
         id="text12730"
         y="386.11783"
         x="311.35956"
         style="font-size:11.69373512px;font-style:italic;font-variant:normal;font-weight:normal;font-stretch:normal;text-align:start;line-height:125%;writing-mode:lr-tb;text-anchor:start;fill:#000000;fill-opacity:1;stroke:none;font-family:Trebuchet MS"
         xml:space="preserve"
         sodipodi:linespacing="125%"><tspan
           y="386.11783"
           x="311.35956"
           id="tspan12732"
           sodipodi:role="line">im_xxx</tspan></text>
      <g
         id="g6878"
         transform="matrix(0.57724922,0,0,1,159.69567,0)">
        <path
           sodipodi:nodetypes="cc"
           id="path10399"
           d="m 379.0037,375.25995 c 57.33614,-0.0482 57.61795,-0.10399 108.09772,-0.3665"
           style="fill:#4993ca;fill-opacity:0.98739492;fill-rule:evenodd;stroke:#4993ca;stroke-width:2.5;stroke-linecap:butt;stroke-linejoin:miter;stroke-miterlimit:4;stroke-opacity:0.98739492;stroke-dasharray:none;stroke-dashoffset:0;marker-end:none" />
        <path
           sodipodi:nodetypes="ccc"
           id="path6876"
           d="m 478.59617,370.53101 11.11168,4.54569 -11.61675,4.0406"
           style="fill:none;stroke:#4993ca;stroke-width:2.5;stroke-linecap:butt;stroke-linejoin:miter;stroke-miterlimit:4;stroke-opacity:0.98823529;stroke-dasharray:none" />
      </g>
      <rect
         rx="8"
         ry="8"
         y="354.51749"
         x="446.23895"
         height="45.898663"
         width="164.03519"
         id="rect10544-9"
         style="opacity:0.8;fill:#c9c9c9;fill-opacity:0.98823529;stroke:#4993ca;stroke-width:2.5;stroke-linecap:square;stroke-linejoin:round;stroke-miterlimit:4;stroke-opacity:1;stroke-dasharray:none;stroke-dashoffset:0" />
      <text
         sodipodi:linespacing="125%"
         id="text12000-9"
         y="375.12286"
         x="476.88"
         style="font-size:14px;font-style:normal;font-variant:normal;font-weight:normal;font-stretch:normal;text-align:start;line-height:125%;writing-mode:lr-tb;text-anchor:start;opacity:1;fill:#000000;fill-opacity:1;stroke:none;font-family:Trebuchet MS"
         xml:space="preserve"><tspan
           y="375.12286"
           x="476.88"
           id="tspan12002-1"
           sodipodi:role="line">Processor</tspan></text>
      <text
         id="text12730-9"
         y="388.77448"
         x="543.61035"
         style="font-size:11.69373511999999948px;font-style:italic;font-variant:normal;font-weight:normal;font-stretch:normal;text-align:start;line-height:125%;writing-mode:lr-tb;text-anchor:start;opacity:1;fill:#000000;fill-opacity:1;stroke:none;font-family:Trebuchet MS"
         xml:space="preserve"
         sodipodi:linespacing="125%"><tspan
           y="388.77448"
           x="543.61035"
           id="tspan12732-4"
           sodipodi:role="line">pm_xxx</tspan></text>
      <g
         style="opacity:0.8"
         id="g6878-2"
         transform="matrix(0.57724922,0,0,1,391.94643,2.6566387)">
        <path
           sodipodi:nodetypes="cc"
           id="path10399-0"
           d="m 379.0037,375.25995 c 57.33614,-0.0482 57.61795,-0.10399 108.09772,-0.3665"
           style="fill:#4993ca;fill-opacity:0.98739492;fill-rule:evenodd;stroke:#4993ca;stroke-width:2.5;stroke-linecap:butt;stroke-linejoin:miter;stroke-miterlimit:4;stroke-opacity:0.98739492;stroke-dasharray:none;stroke-dashoffset:0;marker-end:none" />
        <path
           sodipodi:nodetypes="ccc"
           id="path6876-6"
           d="m 478.59617,370.53101 11.11168,4.54569 -11.61675,4.0406"
           style="fill:none;stroke:#4993ca;stroke-width:2.5;stroke-linecap:butt;stroke-linejoin:miter;stroke-miterlimit:4;stroke-opacity:0.98823529;stroke-dasharray:none" />
      </g>
      <rect
         rx="8"
         ry="8"
         y="354.51746"
         x="678.98096"
         height="45.898663"
         width="164.03519"
         id="rect10544-9-5"
         style="opacity:0.8;fill:#c9c9c9;fill-opacity:0.98823529000000021;stroke:#4993ca;stroke-width:2.50000000000000000;stroke-linecap:square;stroke-linejoin:round;stroke-miterlimit:4;stroke-opacity:1;stroke-dasharray:none;stroke-dashoffset:0" />
      <text
         sodipodi:linespacing="125%"
         id="text12000-9-9"
         y="375.12283"
         x="709.62201"
         style="font-size:14px;font-style:normal;font-variant:normal;font-weight:normal;font-stretch:normal;text-align:start;line-height:125%;writing-mode:lr-tb;text-anchor:start;opacity:1;fill:#000000;fill-opacity:1;stroke:none;font-family:Trebuchet MS"
         xml:space="preserve"><tspan
           y="375.12283"
           x="709.62201"
           id="tspan12002-1-5"
           sodipodi:role="line">Output</tspan></text>
      <text
         id="text12730-9-6"
         y="388.77444"
         x="776.35236"
         style="font-size:11.69373511999999948px;font-style:italic;font-variant:normal;font-weight:normal;font-stretch:normal;text-align:start;line-height:125%;writing-mode:lr-tb;text-anchor:start;opacity:1;fill:#000000;fill-opacity:1;stroke:none;font-family:Trebuchet MS"
         xml:space="preserve"
         sodipodi:linespacing="125%"><tspan
           y="388.77444"
           x="776.35236"
           id="tspan12732-4-1"
           sodipodi:role="line">om_xxx</tspan></text>
      <rect
         rx="8"
         ry="8"
         y="424.79272"
         x="214.08473"
         height="45.898663"
         width="164.03519"
         id="rect10544-1"
         style="opacity:0.8;fill:#c9c9c9;fill-opacity:0.98823529000000021;stroke:#4993ca;stroke-width:2.50000000000000000;stroke-linecap:square;stroke-linejoin:round;stroke-miterlimit:4;stroke-opacity:1;stroke-dasharray:none;stroke-dashoffset:0" />
      <text
         sodipodi:linespacing="125%"
         id="text12000-4"
         y="445.3981"
         x="244.72575"
         style="font-size:14px;font-style:normal;font-variant:normal;font-weight:normal;font-stretch:normal;text-align:start;line-height:125%;writing-mode:lr-tb;text-anchor:start;opacity:1;fill:#000000;fill-opacity:1;stroke:none;font-family:Trebuchet MS"
         xml:space="preserve"><tspan
           y="445.3981"
           x="244.72575"
           id="tspan12002-3"
           sodipodi:role="line">Input</tspan></text>
      <text
         id="text12730-7"
         y="459.04971"
         x="311.45612"
         style="font-size:11.69373511999999948px;font-style:italic;font-variant:normal;font-weight:normal;font-stretch:normal;text-align:start;line-height:125%;writing-mode:lr-tb;text-anchor:start;opacity:1;fill:#000000;fill-opacity:1;stroke:none;font-family:Trebuchet MS"
         xml:space="preserve"
         sodipodi:linespacing="125%"><tspan
           y="459.04971"
           x="311.45612"
           id="tspan12732-2"
           sodipodi:role="line">im_xxx</tspan></text>
      <g
         style="opacity:0.8"
         id="g6878-7"
         transform="matrix(0.57724922,0,0,1,159.79223,72.93188)">
        <path
           sodipodi:nodetypes="cc"
           id="path10399-3"
           d="m 379.0037,375.25995 c 57.33614,-0.0482 57.61795,-0.10399 108.09772,-0.3665"
           style="fill:#4993ca;fill-opacity:0.98739492;fill-rule:evenodd;stroke:#4993ca;stroke-width:2.5;stroke-linecap:butt;stroke-linejoin:miter;stroke-miterlimit:4;stroke-opacity:0.98739492;stroke-dasharray:none;stroke-dashoffset:0;marker-end:none" />
        <path
           sodipodi:nodetypes="ccc"
           id="path6876-3"
           d="m 478.59617,370.53101 11.11168,4.54569 -11.61675,4.0406"
           style="fill:none;stroke:#4993ca;stroke-width:2.5;stroke-linecap:butt;stroke-linejoin:miter;stroke-miterlimit:4;stroke-opacity:0.98823529;stroke-dasharray:none" />
      </g>
      <rect
         rx="8"
         ry="8"
         y="427.44937"
         x="446.33551"
         height="45.898663"
         width="164.03519"
         id="rect10544-9-9"
         style="opacity:0.8;fill:#c9c9c9;fill-opacity:0.98823529000000021;stroke:#4993ca;stroke-width:2.50000000000000000;stroke-linecap:square;stroke-linejoin:round;stroke-miterlimit:4;stroke-opacity:1;stroke-dasharray:none;stroke-dashoffset:0" />
      <text
         sodipodi:linespacing="125%"
         id="text12000-9-2"
         y="448.05475"
         x="476.97656"
         style="font-size:14px;font-style:normal;font-variant:normal;font-weight:normal;font-stretch:normal;text-align:start;line-height:125%;writing-mode:lr-tb;text-anchor:start;opacity:1;fill:#000000;fill-opacity:1;stroke:none;font-family:Trebuchet MS"
         xml:space="preserve"><tspan
           y="448.05475"
           x="476.97656"
           id="tspan12002-1-4"
           sodipodi:role="line">Processor</tspan></text>
      <text
         id="text12730-9-4"
         y="461.70639"
         x="543.70691"
         style="font-size:11.69373511999999948px;font-style:italic;font-variant:normal;font-weight:normal;font-stretch:normal;text-align:start;line-height:125%;writing-mode:lr-tb;text-anchor:start;opacity:1;fill:#000000;fill-opacity:1;stroke:none;font-family:Trebuchet MS"
         xml:space="preserve"
         sodipodi:linespacing="125%"><tspan
           y="461.70639"
           x="543.70691"
           id="tspan12732-4-4"
           sodipodi:role="line">pm_xxx</tspan></text>
      <g
         style="opacity:0.8"
         id="g6878-2-9"
         transform="matrix(0.57724922,0,0,1,392.04299,75.58852)">
        <path
           sodipodi:nodetypes="cc"
           id="path10399-0-9"
           d="m 379.0037,375.25995 c 57.33614,-0.0482 57.61795,-0.10399 108.09772,-0.3665"
           style="fill:#4993ca;fill-opacity:0.98739492;fill-rule:evenodd;stroke:#4993ca;stroke-width:2.5;stroke-linecap:butt;stroke-linejoin:miter;stroke-miterlimit:4;stroke-opacity:0.98739492;stroke-dasharray:none;stroke-dashoffset:0;marker-end:none" />
        <path
           sodipodi:nodetypes="ccc"
           id="path6876-6-3"
           d="m 478.59617,370.53101 11.11168,4.54569 -11.61675,4.0406"
           style="fill:none;stroke:#4993ca;stroke-width:2.5;stroke-linecap:butt;stroke-linejoin:miter;stroke-miterlimit:4;stroke-opacity:0.98823529;stroke-dasharray:none" />
      </g>
      <rect
         rx="8"
         ry="8"
         y="427.44934"
         x="679.07751"
         height="45.898663"
         width="164.03519"
         id="rect10544-9-5-8"
         style="opacity:0.8;fill:#c9c9c9;fill-opacity:0.98823529;stroke:#4993ca;stroke-width:2.5;stroke-linecap:square;stroke-linejoin:round;stroke-miterlimit:4;stroke-opacity:1;stroke-dasharray:none;stroke-dashoffset:0" />
      <text
         sodipodi:linespacing="125%"
         id="text12000-9-9-3"
         y="448.05472"
         x="709.71857"
         style="font-size:14px;font-style:normal;font-variant:normal;font-weight:normal;font-stretch:normal;text-align:start;line-height:125%;writing-mode:lr-tb;text-anchor:start;opacity:1;fill:#000000;fill-opacity:1;stroke:none;font-family:Trebuchet MS"
         xml:space="preserve"><tspan
           y="448.05472"
           x="709.71857"
           id="tspan12002-1-5-2"
           sodipodi:role="line">Output</tspan></text>
      <text
         id="text12730-9-6-9"
         y="461.70633"
         x="776.44885"
         style="font-size:11.69373511999999948px;font-style:italic;font-variant:normal;font-weight:normal;font-stretch:normal;text-align:start;line-height:125%;writing-mode:lr-tb;text-anchor:start;opacity:1;fill:#000000;fill-opacity:1;stroke:none;font-family:Trebuchet MS"
         xml:space="preserve"
         sodipodi:linespacing="125%"><tspan
           y="461.70633"
           x="776.44885"
           id="tspan12732-4-1-5"
           sodipodi:role="line">om_xxx</tspan></text>
    </g>
  </g>
</svg>
